TargetFile,TFileType,TFileExtension,TFileSize,TFileNLines,TFileN80CharLines,FileHeaderType,badgeLevel,nSpecs,nSrcs,nLs,nL2Commits,nLBackgrounds,nRHAnnotations,nRhs,nRHBackgrounds,nRH2Commits,nIdentityGroups,nIdentities,nIdentiesExplicitly,nResolveAnnotations,nMap2GitIdAnnotations,nAuthorAnnotations,nAuthors,nAuthorBackgrounds,nAuthor2Commits,nPersDataPolicies,nAddEtcPolicies,nExtAnnotations
.gitignore,TEXT,,885B,     17,     10.388,std,3,3,1,1,1,0,1,1,0,1,1,1,1,1,0,0,0,0,0,0,0,0
.reuse/dep5,TEXT,,  6.17KB,    110,     72.775,std,3,3,2,1,1,0,1,1,0,1,1,1,1,1,0,0,0,0,0,0,0,0
LICENSE.spdx,TEXT,spdx, 18.09KB,    277,    194.638,dep5,3,3,2,1,1,1,1,1,0,1,1,1,1,1,0,0,0,0,0,0,0,0
LICENSES/0BSD.txt,TEXT,txt,643B,      5,      6.725,dep5,3,3,0,1,0,0,2,2,0,0,2,2,0,0,0,0,0,0,0,0,0,1
LICENSES/Apache-2.0.txt,TEXT,txt, 10.28KB,     73,    108.013,dep5,3,3,0,1,0,0,1,1,0,0,1,1,0,0,0,0,0,0,0,0,0,1
LICENSES/CC-BY-4.0.txt,TEXT,txt, 17.02KB,    156,    173.113,dep5,3,3,0,1,0,0,1,1,0,0,1,1,0,0,0,0,0,0,0,0,0,1
LICENSES/CC-BY-ND-4.0.txt,TEXT,txt, 16.83KB,    154,    171.150,dep5,3,3,0,1,0,0,1,1,0,0,1,1,0,0,0,0,0,0,0,0,0,1
LICENSES/CC0-1.0.txt,TEXT,txt,  7.05KB,    121,     72.763,dep5,3,3,0,1,0,0,1,1,0,0,1,1,0,0,0,0,0,0,0,0,0,1
LICENSES/GPL-3.0-or-later.txt,TEXT,txt, 34.67KB,    232,    357.950,dep5,3,3,0,1,0,0,1,1,0,0,1,1,0,0,0,0,0,0,0,0,0,1
LICENSES/MIT.txt,TEXT,txt,  1.20KB,      9,     12.575,dep5,3,3,0,1,0,0,1,1,0,0,1,1,0,0,0,0,0,0,0,0,0,1
Makefile,TEXT,,  1.63KB,     28,     18.388,std,3,3,1,1,1,0,1,1,0,1,1,1,1,1,0,0,0,0,0,0,0,0
README.md,TEXT,md,  4.20KB,     45,     46.238,std,3,3,1,1,1,0,1,1,0,1,1,1,1,1,0,0,0,0,0,0,0,0
spdx-utils-input/config,TEXT,,  2.33KB,     30,     26.888,std,3,3,3,1,1,0,1,1,0,1,1,1,1,1,0,0,0,0,0,0,0,0
spdx-utils-input/spdx_document_template.txt,TEXT,txt,  4.08KB,     53,     44.850,dep5,3,3,2,1,1,1,1,1,0,1,1,1,1,1,0,0,0,0,0,0,0,0
spdx-utils-main/.gitignore,TEXT,,923B,     18,     10.850,std,3,3,1,1,1,0,1,1,0,1,1,1,1,1,0,0,0,0,0,0,0,0
spdx-utils-main/Makefile,TEXT,,  2.55KB,     42,     29.325,std,3,3,3,1,1,0,1,1,0,1,1,1,1,1,0,0,0,0,0,0,0,0
spdx-utils-main/README_SPDX_UTILS.md,TEXT,md,  9.31KB,    119,    103.875,std,3,3,3,1,1,0,1,1,0,1,1,1,1,1,0,0,0,0,0,0,0,0
spdx-utils-main/config,TEXT,,  2.43KB,     30,     28.150,std,3,3,3,1,1,0,1,1,0,1,1,1,1,1,0,0,0,0,0,0,0,0
spdx-utils-main/make-helper.sh,TEXT,sh,  4.53KB,     91,     51.675,std,3,3,3,1,1,0,1,1,0,1,1,1,1,1,0,0,0,0,0,0,0,0
spdx-utils-main/requirements_conda_base.txt,TEXT,txt,  1.84KB,     42,     21.650,std,3,3,2,1,1,0,1,1,1,1,1,1,1,1,0,0,0,0,0,0,0,0
spdx-utils-main/requirements_pip.txt,TEXT,txt,  1.34KB,     30,     15.888,std,3,3,2,1,1,0,1,1,0,1,1,1,1,1,0,0,0,0,0,0,0,0
spdx-utils-output/pcrlt.csv,TEXT,csv,  3.40KB,     28,     38.188,dep5,2,3,0,1,0,0,1,1,0,0,1,1,0,0,0,0,0,0,0,0,0,0
spdx-utils-output/pcrlt.json,TEXT,json, 96.36KB,   2739,    769.738,dep5,2,3,0,1,0,0,1,1,0,0,1,1,0,0,0,0,0,0,0,0,0,0
spdx-utils-output/pcrlt.spdx,TEXT,spdx, 18.09KB,    277,    194.663,dep5,2,3,0,1,0,0,1,1,0,0,1,1,0,0,0,0,0,0,0,0,0,0
spdx-utils-output/pcrlt.txt,TEXT,txt, 18.90KB,    113,    102.813,dep5,2,3,0,1,0,0,1,1,0,0,1,1,0,0,0,0,0,0,0,0,0,0
spdx-utils-output/reuse.spdx,TEXT,spdx, 13.12KB,    269,    151.138,dep5,2,3,0,1,0,0,1,1,0,0,1,1,0,0,0,0,0,0,0,0,0,0
spdx-utils-output/reuse.txt,TEXT,txt,410B,     13,      4.325,dep5,2,3,0,1,0,0,1,1,0,0,1,1,0,0,0,0,0,0,0,0,0,0
